VID : Analyse exploratoire des données
…
Le chargement a nécessité le package : tools

Introduction

Dans ce premier TP, nous allons prendre en main R ainsi que RStudio et Quarto. Pour se faire, nous allons jouer avec plusieurs jeux de données qui nous servirons de base pour faire de l’analyse.

Exercice 1

a. Les données figurent dans le fichier Notes.xlsx qui se trouve dans la page Moodle du cours. Télécharger le fichier et enregistrer les données dans l’objet examen de R en utilisant la librairie readxl.

examen <- read_excel("files/Notes.xlsx")
examen

# A tibble: 82 × 2
   Classe  Note
   <chr>  <dbl>
 1 A        5.7
 2 A        4.1
 3 A        5.9
 4 A        3.6
 5 A        3  
 6 A        4.4
 7 A        2.5
 8 A       NA  
 9 A        5.3
10 A        3  
# ℹ 72 more rows
…
#install.packages("skimr")
library("skimr")

Attachement du package : 'skimr'

L'objet suivant est masqué depuis 'package:corrr':

    focus

#install.packages("palmerpenguins")
library("palmerpenguins")

penguins

# A tibble: 344 × 8
   species island    bill_length_mm bill_depth_mm flipper_length_mm body_mass_g
   <fct>   <fct>              <dbl>         <dbl>             <int>       <int>
 1 Adelie  Torgersen           39.1          18.7               181        3750
 2 Adelie  Torgersen           39.5          17.4               186        3800
 3 Adelie  Torgersen           40.3          18                 195        3250
 4 Adelie  Torgersen           NA            NA                  NA          NA
 5 Adelie  Torgersen           36.7          19.3               193        3450
 6 Adelie  Torgersen           39.3          20.6               190        3650
 7 Adelie  Torgersen           38.9          17.8               181        3625
 8 Adelie  Torgersen           39.2          19.6               195        4675
 9 Adelie  Torgersen           34.1          18.1               193        3475
10 Adelie  Torgersen           42            20.2               190        4250
# ℹ 334 more rows
# ℹ 2 more variables: sex <fct>, year <int>
…
